{
	"openapi": "3.0.3",
	"info": {
		"title": "🌀 MS Lifecycle CPDL",
		"description": "Small product lifecycle API",
		"version": "1.0.11"
	},
	"tags": [
    {
      "name": "product",
      "description": "Everything about the products"
    }
  ],
  "paths": {
	"/ping": {
      "get": {
        "summary": "Check the status of the API",
        "responses": {
          "200": {
            "description": "API is responding",
            "content": {
              "application/json": {
                "schema": {
                  "type": "string"
                },
                "example": "Pong!"
              }
            }
          }
        }
      }
    },
    "/{productId}/state": {
      "get": {
        "summary": "Get the state of a product",
        "tags": ["product"],
        "parameters": [
          {
            "name": "productId",
            "in": "path",
            "required": true,
            "schema": {
              "type": "string"
            }
          }
        ],
        "responses": {
          "200": {
            "description": "Successful response",
            "content": {
              "application/json": {
                "schema": {
                  "type": "object",
                  "properties": {
                    "product": {
                      "type": "string"
                    },
                    "state": {
                      "type": "integer"
                    }
                  }
                },
                "example": {
                  "product": "productIdValue",
                  "state": 1
                }
              }
            }
          }
        }
      },
      "post": {
        "summary": "Update the state of a product",
        "tags": ["product"],
        "parameters": [
          {
            "name": "productId",
            "in": "path",
            "required": true,
            "schema": {
              "type": "string"
            }
          }
        ],
        "requestBody": {
          "required": true,
          "content": {
            "application/json": {
              "schema": {
                "type": "object",
                "properties": {
                  "newState": {
                    "type": "integer"
                  }
                }
              }
            }
          }
        },
        "responses": {
          "200": {
            "description": "Successful response",
            "content": {
              "application/json": {
                "schema": {
                  "type": "object",
                  "properties": {
                    "product": {
                      "type": "string"
                    },
                    "newState": {
                      "type": "integer"
                    }
                  }
                },
                "example": {
                  "product": "productIdValue",
                  "newState": 1
                }
              }
            }
          },
          "400": {
            "description": "Bad Request",
            "content": {
              "application/json": {
                "schema": {
                  "type": "object",
                  "properties": {
                    "statusCode": {
                      "type": "integer",
                      "example": 400
                    },
                    "code": {
                      "type": "string",
                      "example": "FST_ERR_VALIDATION"
                    },
                    "error": {
                      "type": "string",
                      "example": "Bad Request"
                    },
                    "message": {
                      "type": "string",
                      "example": "body must be object"
                    }
                  }
                }
              }
            }
          }
        }
      }
    }
  }
}
